…
## What is mean total number of steps taken per day?
### 2. Plot histogram for total number of steps taken each day.
In this step, firstly we need to summarise the total step that taken each day. We use "group_by" followed by "summarise" function from "dplyr" package to summrise data.

```r
summary_total_step <- dataset %>% group_by(date) %>% summarise(Total_steps = sum(steps))
print(summary_total_step)
```

```
## # A tibble: 61 x 2
##          date Total_steps
##        <fctr>       <int>
##  1 2012-10-01          NA
##  2 2012-10-02         126
##  3 2012-10-03       11352
##  4 2012-10-04       12116
##  5 2012-10-05       13294
##  6 2012-10-06       15420
##  7 2012-10-07       11015
##  8 2012-10-08          NA
##  9 2012-10-09       12811
## 10 2012-10-10        9900
## # ... with 51 more rows
```
…
```
## [1] "Date"
```

Next, we could summarise the average of steps by date and plot it with time series.    

```r
summary_mean_step <- dataset %>% group_by(date) %>% summarise(Average_steps = mean(steps, na.rm = TRUE))
print(summary_mean_step)
```

```
## # A tibble: 61 x 2
##          date Average_steps
##        <date>         <dbl>
##  1 2012-10-01           NaN
##  2 2012-10-02       0.43750
##  3 2012-10-03      39.41667
##  4 2012-10-04      42.06944
##  5 2012-10-05      46.15972
##  6 2012-10-06      53.54167
##  7 2012-10-07      38.24653
##  8 2012-10-08           NaN
##  9 2012-10-09      44.48264
## 10 2012-10-10      34.37500
## # ... with 51 more rows
```
…
We found there are some missing values in our plotting. We can fix it in the steps later on.  

### 5. The 5-minute interval that, on average, contains the maximum number of steps.  

```r
summary_by_interval <- dataset %>% group_by(interval) %>% summarise(Average_steps = mean(steps, na.rm = TRUE))
print(summary_by_interval)
```

```
## # A tibble: 288 x 2
##    interval Average_steps
##       <int>         <dbl>
##  1        0     1.7169811
##  2        5     0.3396226
##  3       10     0.1320755
##  4       15     0.1509434
##  5       20     0.0754717
##  6       25     2.0943396
##  7       30     0.5283019
##  8       35     0.8679245
##  9       40     0.0000000
## 10       45     1.4716981
## # ... with 278 more rows
```
…
```
## 
##  weekday weekends 
##    12960     4608
```

At last, we could plot the summary of steps by "lattice" package.  

```r
summary_by_interval_weekdays <- dataset %>% group_by(interval, weekdays) %>% summarise(Average_steps = mean(steps))
print(summary_by_interval_weekdays)
```

```
## # A tibble: 576 x 3
## # Groups:   interval [?]
##    interval weekdays Average_steps
##       <int>    <chr>         <dbl>
##  1        0  weekday   2.251153040
##  2        0 weekends   0.214622642
##  3        5  weekday   0.445283019
##  4        5 weekends   0.042452830
##  5       10  weekday   0.173165618
##  6       10 weekends   0.016509434
##  7       15  weekday   0.197903564
##  8       15 weekends   0.018867925
##  9       20  weekday   0.098951782
## 10       20 weekends   0.009433962
## # ... with 566 more rows
```
…
